module gitlab.com/clockwork-paper/clockwork

go 1.12

require (
	github.com/Rjected/gmp v1.0.4-0.20190521043342-9c9965578e96
	github.com/Rjected/lit v0.0.0-20191201201020-18eabb6e8568
	github.com/btcsuite/btcd v0.20.1-beta // indirect
	github.com/btcsuite/fastsha256 v0.0.0-20160815193821-637e65642941
	github.com/btcsuite/golangcrypto v0.0.0-20150304025918-53f62d9b43e8
	github.com/dchest/siphash v1.2.1
	github.com/dgryski/go-rc5 v0.0.0-20181025211356-a14dd155920a
	github.com/dgryski/go-rc6 v0.0.0-20181026001059-5073bcd24073
	github.com/ethereum/go-ethereum v1.9.7
	github.com/fatih/color v1.7.0
	github.com/go-sql-driver/mysql v1.4.1
	github.com/jessevdk/go-flags v1.4.1-0.20181221193153-c0795c8afcf4
	github.com/mattn/go-runewidth v0.0.6 // indirect
	github.com/minio/highwayhash v1.0.0
	github.com/olekukonko/tablewriter v0.0.2
	golang.org/x/crypto v0.0.0-20191112222119-e1110fd1c708
	golang.org/x/text v0.3.2
	google.golang.org/appengine v1.6.5 // indirect
)
